<svg width="1677" height="846" viewBox="0 0 1677 846" fill="none" xmlns="http://www.w3.org/2000/svg">
<path d="M0 626H1684V823.89C869.508 524.822 565.471 943.474 0 823.89V626Z" fill="#DAE4F6"/>
<rect y="149.5" width="1680" height="477" fill="#DAE4F6"/>
<path d="M1684 150L0 150V15.0749C814.492 218.985 1118.53 -66.4593 1684 15.0749V150Z" fill="#DAE4F6"/>
</svg>
